﻿Catalogue : 
Priorités : 1, 4, 3, 2, 5
Controleurs : 
 - controleur prestation : 1, 2, 3, 5
 - controleur catégorie : 4
 
URLs : 
 - /listePrestations --> 1
 - /listeCategories --> 4
 - /categorie/# --> 3
 - /prestation/# --> 2
 - /triPrix --> 5
 
Création du coffret :
Priorités : 10, 9, 14, 13, 11, 12
 - controleur coffret : 9, 10, 11, 14, 13
 - controleur paiement : 12
 
 URLs :
 - /coffret/# --> 10
 - /ajoutPresta/# --> 9
 - /modifCoffret/#coffret/#presta --> 14
 - /ajoutMDP/#/$mdp --> 13
 - /validCoffret/# --> 11
 - /paiementClassique/# --> 12

  
Ouais bon en fait on a 1 controleur par CU, donc là 2 dans ce cas

https://webetu.iutnc.univ-lorraine.fr
